    0 KSP Residual norm 199.275 
    1 KSP Residual norm 61.0126 
    2 KSP Residual norm 9.09477 
    3 KSP Residual norm 2.80141 
    4 KSP Residual norm 0.236545 
    5 KSP Residual norm 0.0978524 
    6 KSP Residual norm 0.00717238 
    7 KSP Residual norm 0.00317735 
    8 KSP Residual norm 7.70898e-05 
    9 KSP Residual norm 2.52042e-05 
   10 KSP Residual norm 2.54884e-07 
   11 KSP Residual norm 1.3959e-08 
  Linear solve converged due to CONVERGED_RTOL iterations 11
    0 KSP Residual norm 486.396 
    1 KSP Residual norm 33.2901 
    2 KSP Residual norm 6.50008 
    3 KSP Residual norm 0.956255 
    4 KSP Residual norm 0.191786 
    5 KSP Residual norm 0.0410418 
    6 KSP Residual norm 0.0100221 
    7 KSP Residual norm 0.00165325 
    8 KSP Residual norm 0.000343111 
    9 KSP Residual norm 7.48746e-05 
   10 KSP Residual norm 1.63111e-05 
   11 KSP Residual norm 4.09853e-06 
   12 KSP Residual norm 8.09049e-07 
   13 KSP Residual norm 1.37819e-07 
   14 KSP Residual norm 2.66372e-08 
  Linear solve converged due to CONVERGED_RTOL iterations 14
[0] 1) N=         441, max displ=5.5560415e+01, disp diff= 1.19e+01, error=4.415e+00, rate=1.9
