SNES Object: 5 MPI processes
  type: newtonls
  maximum iterations=50, maximum function evaluations=10000
  tolerances: relative=1e-08, absolute=1e-50, solution=1e-08
  total number of linear solver iterations=33
  total number of function evaluations=2
  norm schedule ALWAYS
  SNESLineSearch Object: 5 MPI processes
    type: bt
      interpolation: cubic
      alpha=1.000000e-04
    maxstep=1.000000e+08, minlambda=1.000000e-12
    tolerances: relative=1.000000e-08, absolute=1.000000e-15, lambda=1.000000e-08
    maximum iterations=40
  KSP Object: 5 MPI processes
    type: fetidp
      fully redundant: 0
      saddle point:    1
    Inner KSP solver details
      KSP Object: (fetidp_) 5 MPI processes
        type: cg
        maximum iterations=10000, initial guess is zero
        tolerances:  relative=1e-08, absolute=1e-50, divergence=10000.
        left preconditioning
        using PRECONDITIONED norm type for convergence test
      PC Object: (fetidp_) 5 MPI processes
        type: fieldsplit
          FieldSplit with Schur preconditioner, factorization DIAG
          Preconditioner for the Schur complement formed from user provided matrix
          Split info:
          Split number 0 Defined by IS
          Split number 1 Defined by IS
          KSP solver for A00 block
            KSP Object: (fetidp_fieldsplit_lag_) 5 MPI processes
              type: preonly
              maximum iterations=10000, initial guess is zero
              tolerances:  relative=1e-05, absolute=1e-50, divergence=10000.
              left preconditioning
              using NONE norm type for convergence test
            PC Object: (fetidp_fieldsplit_lag_) 5 MPI processes
              type: shell
                FETI-DP multipliers
                  Dirichlet preconditioner (just from rank 0)
                  Mat Object: 1 MPI processes
                    type: schurcomplement
                    rows=59, cols=59
                      Schur complement A11 - A10 inv(A00) A01
                      A11
                        Mat Object: 1 MPI processes
                          type: seqaij
                          rows=59, cols=59
                          total: nonzeros=663, allocated nonzeros=663
                          total number of mallocs used during MatSetValues calls =0
                            using I-node routines: found 25 nodes, limit used is 5
                      A10
                        Mat Object: 1 MPI processes
                          type: seqaij
                          rows=59, cols=242
                          total: nonzeros=983, allocated nonzeros=983
                          total number of mallocs used during MatSetValues calls =0
                            using I-node routines: found 25 nodes, limit used is 5
                      KSP of A00
                        KSP Object: (fetidp_bddc_pc_bddc_dirichlet_) 1 MPI processes
                          type: preonly
                          maximum iterations=10000, initial guess is zero
                          tolerances:  relative=1e-05, absolute=1e-50, divergence=10000.
                          left preconditioning
                          using NONE norm type for convergence test
                        PC Object: (fetidp_bddc_pc_bddc_dirichlet_) 1 MPI processes
                          type: lu
                            out-of-place factorization
                            tolerance for zero pivot 2.22045e-14
                            matrix ordering: nd
                            factor fill ratio given 0., needed 0.
                              Factored matrix follows:
                                Mat Object: 1 MPI processes
                                  type: mumps
                                  rows=242, cols=242
                                  package used to perform factorization: mumps
                                  total: nonzeros=10386, allocated nonzeros=10386
                                  total number of mallocs used during MatSetValues calls =0
                                    MUMPS run parameters:
                                      SYM (matrix type):                   0 
                                      PAR (host participation):            1 
                                      ICNTL(1) (output for error):         6 
                                      ICNTL(2) (output of diagnostic msg): 0 
                                      ICNTL(3) (output for global info):   0 
                                      ICNTL(4) (level of printing):        0 
                                      ICNTL(5) (input mat struct):         0 
                                      ICNTL(6) (matrix prescaling):        7 
                                      ICNTL(7) (sequential matrix ordering):7 
                                      ICNTL(8) (scaling strategy):        77 
                                      ICNTL(10) (max num of refinements):  0 
                                      ICNTL(11) (error analysis):          0 
                                      ICNTL(12) (efficiency control):                         1 
                                      ICNTL(13) (efficiency control):                         0 
                                      ICNTL(14) (percentage of estimated workspace increase): 20 
                                      ICNTL(18) (input mat struct):                           0 
                                      ICNTL(19) (Schur complement info):                      0 
                                      ICNTL(20) (rhs sparse pattern):                         0 
                                      ICNTL(21) (solution struct):                            0 
                                      ICNTL(22) (in-core/out-of-core facility):               0 
                                      ICNTL(23) (max size of memory can be allocated locally):0 
                                      ICNTL(24) (detection of null pivot rows):               0 
                                      ICNTL(25) (computation of a null space basis):          0 
                                      ICNTL(26) (Schur options for rhs or solution):          0 
                                      ICNTL(27) (experimental parameter):                     -32 
                                      ICNTL(28) (use parallel or sequential ordering):        1 
                                      ICNTL(29) (parallel ordering):                          0 
                                      ICNTL(30) (user-specified set of entries in inv(A)):    0 
                                      ICNTL(31) (factors is discarded in the solve phase):    0 
                                      ICNTL(33) (compute determinant):                        0 
                                      ICNTL(35) (activate BLR based factorization):           0 
                                      ICNTL(36) (choice of BLR factorization variant):        0 
                                      ICNTL(38) (estimated compression rate of LU factors):   333 
                                      CNTL(1) (relative pivoting threshold):      0.01 
                                      CNTL(2) (stopping criterion of refinement): 1.49012e-08 
                                      CNTL(3) (absolute pivoting threshold):      0. 
                                      CNTL(4) (value of static pivoting):         -1. 
                                      CNTL(5) (fixation for null pivots):         0. 
                                      CNTL(7) (dropping parameter for BLR):       0. 
                                      RINFO(1) (local estimated flops for the elimination after analysis): 
                                        [0] 241360. 
                                      RINFO(2) (local estimated flops for the assembly after factorization): 
                                        [0]  11259. 
                                      RINFO(3) (local estimated flops for the elimination after factorization): 
                                        [0]  241360. 
                                      INFO(15) (estimated size of (in MB) MUMPS internal data for running numerical factorization): 
                                      [0] 1 
                                      INFO(16) (size of (in MB) MUMPS internal data used during numerical factorization): 
                                        [0] 1 
                                      INFO(23) (num of pivots eliminated on this processor after factorization): 
                                        [0] 242 
                                      RINFOG(1) (global estimated flops for the elimination after analysis): 241360. 
                                      RINFOG(2) (global estimated flops for the assembly after factorization): 11259. 
                                      RINFOG(3) (global estimated flops for the elimination after factorization): 241360. 
                                      (RINFOG(12) RINFOG(13))*2^INFOG(34) (determinant): (0.,0.)*(2^0)
                                      INFOG(3) (estimated real workspace for factors on all processors after analysis): 10386 
                                      INFOG(4) (estimated integer workspace for factors on all processors after analysis): 2553 
                                      INFOG(5) (estimated maximum front size in the complete tree): 36 
                                      INFOG(6) (number of nodes in the complete tree): 41 
                                      INFOG(7) (ordering option effectively use after analysis): 2 
                                      INFOG(8) (structural symmetry in percent of the permuted matrix after analysis): 100 
                                      INFOG(9) (total real/complex workspace to store the matrix factors after factorization): 10386 
                                      INFOG(10) (total integer space store the matrix factors after factorization): 2553 
                                      INFOG(11) (order of largest frontal matrix after factorization): 36 
                                      INFOG(12) (number of off-diagonal pivots): 1 
                                      INFOG(13) (number of delayed pivots after factorization): 0 
                                      INFOG(14) (number of memory compress after factorization): 0 
                                      INFOG(15) (number of steps of iterative refinement after solution): 0 
                                      INFOG(16) (estimated size (in MB) of all MUMPS internal data for factorization after analysis: value on the most memory consuming processor): 1 
                                      INFOG(17) (estimated size of all MUMPS internal data for factorization after analysis: sum over all processors): 1 
                                      INFOG(18) (size of all MUMPS internal data allocated during factorization: value on the most memory consuming processor): 1 
                                      INFOG(19) (size of all MUMPS internal data allocated during factorization: sum over all processors): 1 
                                      INFOG(20) (estimated number of entries in the factors): 10386 
                                      INFOG(21) (size in MB of memory effectively used during factorization - value on the most memory consuming processor): 1 
                                      INFOG(22) (size in MB of memory effectively used during factorization - sum over all processors): 1 
                                      INFOG(23) (after analysis: value of ICNTL(6) effectively used): 0 
                                      INFOG(24) (after analysis: value of ICNTL(12) effectively used): 1 
                                      INFOG(25) (after factorization: number of pivots modified by static pivoting): 0 
                                      INFOG(28) (after factorization: number of null pivots encountered): 0
                                      INFOG(29) (after factorization: effective number of entries in the factors (sum over all processors)): 10386
                                      INFOG(30, 31) (after solution: size in Mbytes of memory used during solution phase): 0, 0
                                      INFOG(32) (after analysis: type of analysis done): 1
                                      INFOG(33) (value used for ICNTL(8)): 7
                                      INFOG(34) (exponent of the determinant if determinant is requested): 0
                                      INFOG(35) (after factorization: number of entries taking into account BLR factor compression - sum over all processors): 10386
                                      INFOG(36) (after analysis: estimated size of all MUMPS internal data for running BLR in-core - value on the most memory consuming processor): 0 
                                      INFOG(37) (after analysis: estimated size of all MUMPS internal data for running BLR in-core - sum over all processors): 0 
                                      INFOG(38) (after analysis: estimated size of all MUMPS internal data for running BLR out-of-core - value on the most memory consuming processor): 0 
                                      INFOG(39) (after analysis: estimated size of all MUMPS internal data for running BLR out-of-core - sum over all processors): 0 
                          linear system matrix = precond matrix:
                          Mat Object: (fetidp_bddc_pc_bddc_dirichlet_) 1 MPI processes
                            type: seqaij
                            rows=242, cols=242
                            total: nonzeros=7380, allocated nonzeros=7380
                            total number of mallocs used during MatSetValues calls =0
                              using I-node routines: found 116 nodes, limit used is 5
                      A01
                        Mat Object: 1 MPI processes
                          type: seqaij
                          rows=242, cols=59
                          total: nonzeros=983, allocated nonzeros=983
                          total number of mallocs used during MatSetValues calls =0
                            using I-node routines: found 81 nodes, limit used is 5
              linear system matrix = precond matrix:
              Mat Object: (fetidp_fieldsplit_lag_) 5 MPI processes
                type: submatrix
                rows=126, cols=126
          KSP solver for S = A11 - A10 inv(A00) A01 
            KSP Object: (fetidp_fieldsplit_p_) 5 MPI processes
              type: richardson
                damping factor=200.
              maximum iterations=1, initial guess is zero
              tolerances:  relative=1e-05, absolute=1e-50, divergence=10000.
              left preconditioning
              using PRECONDITIONED norm type for convergence test
            PC Object: (fetidp_fieldsplit_p_) 5 MPI processes
              type: none
              linear system matrix followed by preconditioner matrix:
              Mat Object: (fetidp_fieldsplit_p_) 5 MPI processes
                type: schurcomplement
                rows=37, cols=37
                  Schur complement A11 - A10 inv(A00) A01
                  A11
                    Mat Object: (fetidp_fieldsplit_p_) 5 MPI processes
                      type: submatrix
                      rows=37, cols=37
                  A10
                    Mat Object: 5 MPI processes
                      type: submatrix
                      rows=37, cols=126
                  KSP of A00
                    KSP Object: (fetidp_fieldsplit_lag_) 5 MPI processes
                      type: preonly
                      maximum iterations=10000, initial guess is zero
                      tolerances:  relative=1e-05, absolute=1e-50, divergence=10000.
                      left preconditioning
                      using NONE norm type for convergence test
                    PC Object: (fetidp_fieldsplit_lag_) 5 MPI processes
                      type: shell
                        FETI-DP multipliers
                          Dirichlet preconditioner (just from rank 0)
                          Mat Object: 1 MPI processes
                            type: schurcomplement
                            rows=59, cols=59
                              Schur complement A11 - A10 inv(A00) A01
                              A11
                                Mat Object: 1 MPI processes
                                  type: seqaij
                                  rows=59, cols=59
                                  total: nonzeros=663, allocated nonzeros=663
                                  total number of mallocs used during MatSetValues calls =0
                                    using I-node routines: found 25 nodes, limit used is 5
                              A10
                                Mat Object: 1 MPI processes
                                  type: seqaij
                                  rows=59, cols=242
                                  total: nonzeros=983, allocated nonzeros=983
                                  total number of mallocs used during MatSetValues calls =0
                                    using I-node routines: found 25 nodes, limit used is 5
                              KSP of A00
                                KSP Object: (fetidp_bddc_pc_bddc_dirichlet_) 1 MPI processes
                                  type: preonly
                                  maximum iterations=10000, initial guess is zero
                                  tolerances:  relative=1e-05, absolute=1e-50, divergence=10000.
                                  left preconditioning
                                  using NONE norm type for convergence test
                                PC Object: (fetidp_bddc_pc_bddc_dirichlet_) 1 MPI processes
                                  type: lu
                                    out-of-place factorization
                                    tolerance for zero pivot 2.22045e-14
                                    matrix ordering: nd
                                    factor fill ratio given 0., needed 0.
                                      Factored matrix follows:
                                        Mat Object: 1 MPI processes
                                          type: mumps
                                          rows=242, cols=242
                                          package used to perform factorization: mumps
                                          total: nonzeros=10386, allocated nonzeros=10386
                                          total number of mallocs used during MatSetValues calls =0
                                            MUMPS run parameters:
                                              SYM (matrix type):                   0 
                                              PAR (host participation):            1 
                                              ICNTL(1) (output for error):         6 
                                              ICNTL(2) (output of diagnostic msg): 0 
                                              ICNTL(3) (output for global info):   0 
                                              ICNTL(4) (level of printing):        0 
                                              ICNTL(5) (input mat struct):         0 
                                              ICNTL(6) (matrix prescaling):        7 
                                              ICNTL(7) (sequential matrix ordering):7 
                                              ICNTL(8) (scaling strategy):        77 
                                              ICNTL(10) (max num of refinements):  0 
                                              ICNTL(11) (error analysis):          0 
                                              ICNTL(12) (efficiency control):                         1 
                                              ICNTL(13) (efficiency control):                         0 
                                              ICNTL(14) (percentage of estimated workspace increase): 20 
                                              ICNTL(18) (input mat struct):                           0 
                                              ICNTL(19) (Schur complement info):                      0 
                                              ICNTL(20) (rhs sparse pattern):                         0 
                                              ICNTL(21) (solution struct):                            0 
                                              ICNTL(22) (in-core/out-of-core facility):               0 
                                              ICNTL(23) (max size of memory can be allocated locally):0 
                                              ICNTL(24) (detection of null pivot rows):               0 
                                              ICNTL(25) (computation of a null space basis):          0 
                                              ICNTL(26) (Schur options for rhs or solution):          0 
                                              ICNTL(27) (experimental parameter):                     -32 
                                              ICNTL(28) (use parallel or sequential ordering):        1 
                                              ICNTL(29) (parallel ordering):                          0 
                                              ICNTL(30) (user-specified set of entries in inv(A)):    0 
                                              ICNTL(31) (factors is discarded in the solve phase):    0 
                                              ICNTL(33) (compute determinant):                        0 
                                              ICNTL(35) (activate BLR based factorization):           0 
                                              ICNTL(36) (choice of BLR factorization variant):        0 
                                              ICNTL(38) (estimated compression rate of LU factors):   333 
                                              CNTL(1) (relative pivoting threshold):      0.01 
                                              CNTL(2) (stopping criterion of refinement): 1.49012e-08 
                                              CNTL(3) (absolute pivoting threshold):      0. 
                                              CNTL(4) (value of static pivoting):         -1. 
                                              CNTL(5) (fixation for null pivots):         0. 
                                              CNTL(7) (dropping parameter for BLR):       0. 
                                              RINFO(1) (local estimated flops for the elimination after analysis): 
                                                [0] 241360. 
                                              RINFO(2) (local estimated flops for the assembly after factorization): 
                                                [0]  11259. 
                                              RINFO(3) (local estimated flops for the elimination after factorization): 
                                                [0]  241360. 
                                              INFO(15) (estimated size of (in MB) MUMPS internal data for running numerical factorization): 
                                              [0] 1 
                                              INFO(16) (size of (in MB) MUMPS internal data used during numerical factorization): 
                                                [0] 1 
                                              INFO(23) (num of pivots eliminated on this processor after factorization): 
                                                [0] 242 
                                              RINFOG(1) (global estimated flops for the elimination after analysis): 241360. 
                                              RINFOG(2) (global estimated flops for the assembly after factorization): 11259. 
                                              RINFOG(3) (global estimated flops for the elimination after factorization): 241360. 
                                              (RINFOG(12) RINFOG(13))*2^INFOG(34) (determinant): (0.,0.)*(2^0)
                                              INFOG(3) (estimated real workspace for factors on all processors after analysis): 10386 
                                              INFOG(4) (estimated integer workspace for factors on all processors after analysis): 2553 
                                              INFOG(5) (estimated maximum front size in the complete tree): 36 
                                              INFOG(6) (number of nodes in the complete tree): 41 
                                              INFOG(7) (ordering option effectively use after analysis): 2 
                                              INFOG(8) (structural symmetry in percent of the permuted matrix after analysis): 100 
                                              INFOG(9) (total real/complex workspace to store the matrix factors after factorization): 10386 
                                              INFOG(10) (total integer space store the matrix factors after factorization): 2553 
                                              INFOG(11) (order of largest frontal matrix after factorization): 36 
                                              INFOG(12) (number of off-diagonal pivots): 1 
                                              INFOG(13) (number of delayed pivots after factorization): 0 
                                              INFOG(14) (number of memory compress after factorization): 0 
                                              INFOG(15) (number of steps of iterative refinement after solution): 0 
                                              INFOG(16) (estimated size (in MB) of all MUMPS internal data for factorization after analysis: value on the most memory consuming processor): 1 
                                              INFOG(17) (estimated size of all MUMPS internal data for factorization after analysis: sum over all processors): 1 
                                              INFOG(18) (size of all MUMPS internal data allocated during factorization: value on the most memory consuming processor): 1 
                                              INFOG(19) (size of all MUMPS internal data allocated during factorization: sum over all processors): 1 
                                              INFOG(20) (estimated number of entries in the factors): 10386 
                                              INFOG(21) (size in MB of memory effectively used during factorization - value on the most memory consuming processor): 1 
                                              INFOG(22) (size in MB of memory effectively used during factorization - sum over all processors): 1 
                                              INFOG(23) (after analysis: value of ICNTL(6) effectively used): 0 
                                              INFOG(24) (after analysis: value of ICNTL(12) effectively used): 1 
                                              INFOG(25) (after factorization: number of pivots modified by static pivoting): 0 
                                              INFOG(28) (after factorization: number of null pivots encountered): 0
                                              INFOG(29) (after factorization: effective number of entries in the factors (sum over all processors)): 10386
                                              INFOG(30, 31) (after solution: size in Mbytes of memory used during solution phase): 0, 0
                                              INFOG(32) (after analysis: type of analysis done): 1
                                              INFOG(33) (value used for ICNTL(8)): 7
                                              INFOG(34) (exponent of the determinant if determinant is requested): 0
                                              INFOG(35) (after factorization: number of entries taking into account BLR factor compression - sum over all processors): 10386
                                              INFOG(36) (after analysis: estimated size of all MUMPS internal data for running BLR in-core - value on the most memory consuming processor): 0 
                                              INFOG(37) (after analysis: estimated size of all MUMPS internal data for running BLR in-core - sum over all processors): 0 
                                              INFOG(38) (after analysis: estimated size of all MUMPS internal data for running BLR out-of-core - value on the most memory consuming processor): 0 
                                              INFOG(39) (after analysis: estimated size of all MUMPS internal data for running BLR out-of-core - sum over all processors): 0 
                                  linear system matrix = precond matrix:
                                  Mat Object: (fetidp_bddc_pc_bddc_dirichlet_) 1 MPI processes
                                    type: seqaij
                                    rows=242, cols=242
                                    total: nonzeros=7380, allocated nonzeros=7380
                                    total number of mallocs used during MatSetValues calls =0
                                      using I-node routines: found 116 nodes, limit used is 5
                              A01
                                Mat Object: 1 MPI processes
                                  type: seqaij
                                  rows=242, cols=59
                                  total: nonzeros=983, allocated nonzeros=983
                                  total number of mallocs used during MatSetValues calls =0
                                    using I-node routines: found 81 nodes, limit used is 5
                      linear system matrix = precond matrix:
                      Mat Object: (fetidp_fieldsplit_lag_) 5 MPI processes
                        type: submatrix
                        rows=126, cols=126
                  A01
                    Mat Object: 5 MPI processes
                      type: submatrix
                      rows=126, cols=37
              Mat Object: 5 MPI processes
                type: mpiaij
                rows=37, cols=37
                total: nonzeros=37, allocated nonzeros=37
                total number of mallocs used during MatSetValues calls =0
                  not using I-node (on process 0) routines
        linear system matrix = precond matrix:
        Mat Object: G (fetidp_) 5 MPI processes
          type: shell
          rows=163, cols=163
    Inner BDDC solver details
      PC Object: (fetidp_bddc_) 5 MPI processes
        type: bddc
          Use verbose output: 0
          Use user-defined CSR: 0
          Use local mat graph: 1
          Connectivity graph topological dimension: 2
          Use vertices: 1 (vertex size 1)
          Use edges: 1
          Use faces: 0
          Use true near null space: 0
          Use QR for single constraints on cc: 0
          Use change of basis on local edge nodes: 0
          Use change of basis on local face nodes: 0
          User defined change of basis matrix: 0
          Has change of basis matrix: 0
          Eliminate dirichlet boundary dofs: 1
          Switch on static condensation ops around the interface preconditioner: 1
          Use exact dirichlet trick: 0
          Interface extension: DIRICHLET
          Multilevel max levels: 0
          Multilevel coarsening ratio: 8
          Use estimated eigs for coarse problem: 0
          Use deluxe scaling: 0
          Use deluxe zerorows: 0
          Use deluxe singlemat: 0
          Rebuild interface graph for Schur principal minors: 0
          Number of dofs' layers for the computation of principal minors: -1
          Use user CSR graph to compute successive layers: 0
          Adaptive constraint selection threshold (active 0, userdefined 0): 0.
          Min constraints / connected component: 0
          Max constraints / connected component: 0
          Invert exact Schur complement for adaptive selection: 0
          Symmetric computation of primal basis functions: 0
          Num. Procs. to map coarse adjacency list: 0
          Coarse eqs per proc (significant at the coarsest level): 1
          Detect disconnected: 0 (filter 0)
          Benign subspace trick: 0 (change explicit 0)
          Benign subspace trick is active: 0
          Algebraic computation of no-net-flux: 0
        ********************************** STATISTICS AT LEVEL 0 **********************************
          Global dofs sizes: all 1227 interface 171 coarse 8
          Coarsening ratios: all/coarse 153 interface/coarse 21
          Active processes : 5
          Total subdomains : 5
          Dofs type        :	MIN	MAX	MEAN
          Interior  dofs   :	114	242	211
          Interface dofs   :	39	99	70
          Primal    dofs   :	2	8	4
          Local     dofs   :	153	333	282
          Local     subs   :	1	1
        --- Interior solver (rank 0)
          KSP Object: (fetidp_bddc_pc_bddc_dirichlet_) 1 MPI processes
            type: preonly
            maximum iterations=10000, initial guess is zero
            tolerances:  relative=1e-05, absolute=1e-50, divergence=10000.
            left preconditioning
            using NONE norm type for convergence test
          PC Object: (fetidp_bddc_pc_bddc_dirichlet_) 1 MPI processes
            type: lu
              out-of-place factorization
              tolerance for zero pivot 2.22045e-14
              matrix ordering: nd
              factor fill ratio given 0., needed 0.
                Factored matrix follows:
                  Mat Object: 1 MPI processes
                    type: mumps
                    rows=242, cols=242
                    package used to perform factorization: mumps
                    total: nonzeros=10386, allocated nonzeros=10386
                    total number of mallocs used during MatSetValues calls =0
                      MUMPS run parameters:
                        SYM (matrix type):                   0 
                        PAR (host participation):            1 
                        ICNTL(1) (output for error):         6 
                        ICNTL(2) (output of diagnostic msg): 0 
                        ICNTL(3) (output for global info):   0 
                        ICNTL(4) (level of printing):        0 
                        ICNTL(5) (input mat struct):         0 
                        ICNTL(6) (matrix prescaling):        7 
                        ICNTL(7) (sequential matrix ordering):7 
                        ICNTL(8) (scaling strategy):        77 
                        ICNTL(10) (max num of refinements):  0 
                        ICNTL(11) (error analysis):          0 
                        ICNTL(12) (efficiency control):                         1 
                        ICNTL(13) (efficiency control):                         0 
                        ICNTL(14) (percentage of estimated workspace increase): 20 
                        ICNTL(18) (input mat struct):                           0 
                        ICNTL(19) (Schur complement info):                      0 
                        ICNTL(20) (rhs sparse pattern):                         0 
                        ICNTL(21) (solution struct):                            0 
                        ICNTL(22) (in-core/out-of-core facility):               0 
                        ICNTL(23) (max size of memory can be allocated locally):0 
                        ICNTL(24) (detection of null pivot rows):               0 
                        ICNTL(25) (computation of a null space basis):          0 
                        ICNTL(26) (Schur options for rhs or solution):          0 
                        ICNTL(27) (experimental parameter):                     -32 
                        ICNTL(28) (use parallel or sequential ordering):        1 
                        ICNTL(29) (parallel ordering):                          0 
                        ICNTL(30) (user-specified set of entries in inv(A)):    0 
                        ICNTL(31) (factors is discarded in the solve phase):    0 
                        ICNTL(33) (compute determinant):                        0 
                        ICNTL(35) (activate BLR based factorization):           0 
                        ICNTL(36) (choice of BLR factorization variant):        0 
                        ICNTL(38) (estimated compression rate of LU factors):   333 
                        CNTL(1) (relative pivoting threshold):      0.01 
                        CNTL(2) (stopping criterion of refinement): 1.49012e-08 
                        CNTL(3) (absolute pivoting threshold):      0. 
                        CNTL(4) (value of static pivoting):         -1. 
                        CNTL(5) (fixation for null pivots):         0. 
                        CNTL(7) (dropping parameter for BLR):       0. 
                        RINFO(1) (local estimated flops for the elimination after analysis): 
                          [0] 241360. 
                        RINFO(2) (local estimated flops for the assembly after factorization): 
                          [0]  11259. 
                        RINFO(3) (local estimated flops for the elimination after factorization): 
                          [0]  241360. 
                        INFO(15) (estimated size of (in MB) MUMPS internal data for running numerical factorization): 
                        [0] 1 
                        INFO(16) (size of (in MB) MUMPS internal data used during numerical factorization): 
                          [0] 1 
                        INFO(23) (num of pivots eliminated on this processor after factorization): 
                          [0] 242 
                        RINFOG(1) (global estimated flops for the elimination after analysis): 241360. 
                        RINFOG(2) (global estimated flops for the assembly after factorization): 11259. 
                        RINFOG(3) (global estimated flops for the elimination after factorization): 241360. 
                        (RINFOG(12) RINFOG(13))*2^INFOG(34) (determinant): (0.,0.)*(2^0)
                        INFOG(3) (estimated real workspace for factors on all processors after analysis): 10386 
                        INFOG(4) (estimated integer workspace for factors on all processors after analysis): 2553 
                        INFOG(5) (estimated maximum front size in the complete tree): 36 
                        INFOG(6) (number of nodes in the complete tree): 41 
                        INFOG(7) (ordering option effectively use after analysis): 2 
                        INFOG(8) (structural symmetry in percent of the permuted matrix after analysis): 100 
                        INFOG(9) (total real/complex workspace to store the matrix factors after factorization): 10386 
                        INFOG(10) (total integer space store the matrix factors after factorization): 2553 
                        INFOG(11) (order of largest frontal matrix after factorization): 36 
                        INFOG(12) (number of off-diagonal pivots): 1 
                        INFOG(13) (number of delayed pivots after factorization): 0 
                        INFOG(14) (number of memory compress after factorization): 0 
                        INFOG(15) (number of steps of iterative refinement after solution): 0 
                        INFOG(16) (estimated size (in MB) of all MUMPS internal data for factorization after analysis: value on the most memory consuming processor): 1 
                        INFOG(17) (estimated size of all MUMPS internal data for factorization after analysis: sum over all processors): 1 
                        INFOG(18) (size of all MUMPS internal data allocated during factorization: value on the most memory consuming processor): 1 
                        INFOG(19) (size of all MUMPS internal data allocated during factorization: sum over all processors): 1 
                        INFOG(20) (estimated number of entries in the factors): 10386 
                        INFOG(21) (size in MB of memory effectively used during factorization - value on the most memory consuming processor): 1 
                        INFOG(22) (size in MB of memory effectively used during factorization - sum over all processors): 1 
                        INFOG(23) (after analysis: value of ICNTL(6) effectively used): 0 
                        INFOG(24) (after analysis: value of ICNTL(12) effectively used): 1 
                        INFOG(25) (after factorization: number of pivots modified by static pivoting): 0 
                        INFOG(28) (after factorization: number of null pivots encountered): 0
                        INFOG(29) (after factorization: effective number of entries in the factors (sum over all processors)): 10386
                        INFOG(30, 31) (after solution: size in Mbytes of memory used during solution phase): 0, 0
                        INFOG(32) (after analysis: type of analysis done): 1
                        INFOG(33) (value used for ICNTL(8)): 7
                        INFOG(34) (exponent of the determinant if determinant is requested): 0
                        INFOG(35) (after factorization: number of entries taking into account BLR factor compression - sum over all processors): 10386
                        INFOG(36) (after analysis: estimated size of all MUMPS internal data for running BLR in-core - value on the most memory consuming processor): 0 
                        INFOG(37) (after analysis: estimated size of all MUMPS internal data for running BLR in-core - sum over all processors): 0 
                        INFOG(38) (after analysis: estimated size of all MUMPS internal data for running BLR out-of-core - value on the most memory consuming processor): 0 
                        INFOG(39) (after analysis: estimated size of all MUMPS internal data for running BLR out-of-core - sum over all processors): 0 
            linear system matrix = precond matrix:
            Mat Object: (fetidp_bddc_pc_bddc_dirichlet_) 1 MPI processes
              type: seqaij
              rows=242, cols=242
              total: nonzeros=7380, allocated nonzeros=7380
              total number of mallocs used during MatSetValues calls =0
                using I-node routines: found 116 nodes, limit used is 5
        --- Correction solver (rank 0)
          KSP Object: (fetidp_bddc_pc_bddc_neumann_) 1 MPI processes
            type: preonly
            maximum iterations=1000, initial guess is zero
            tolerances:  relative=1e-10, absolute=1e-10, divergence=10000.
            left preconditioning
            using NONE norm type for convergence test
          PC Object: (fetidp_bddc_pc_bddc_neumann_) 1 MPI processes
            type: lu
              out-of-place factorization
              tolerance for zero pivot 2.22045e-14
              matrix ordering: nd
              factor fill ratio given 0., needed 0.
                Factored matrix follows:
                  Mat Object: 1 MPI processes
                    type: mumps
                    rows=297, cols=297
                    package used to perform factorization: mumps
                    total: nonzeros=14655, allocated nonzeros=14655
                    total number of mallocs used during MatSetValues calls =0
                      MUMPS run parameters:
                        SYM (matrix type):                   0 
                        PAR (host participation):            1 
                        ICNTL(1) (output for error):         6 
                        ICNTL(2) (output of diagnostic msg): 0 
                        ICNTL(3) (output for global info):   0 
                        ICNTL(4) (level of printing):        0 
                        ICNTL(5) (input mat struct):         0 
                        ICNTL(6) (matrix prescaling):        7 
                        ICNTL(7) (sequential matrix ordering):7 
                        ICNTL(8) (scaling strategy):        77 
                        ICNTL(10) (max num of refinements):  0 
                        ICNTL(11) (error analysis):          0 
                        ICNTL(12) (efficiency control):                         1 
                        ICNTL(13) (efficiency control):                         0 
                        ICNTL(14) (percentage of estimated workspace increase): 20 
                        ICNTL(18) (input mat struct):                           0 
                        ICNTL(19) (Schur complement info):                      0 
                        ICNTL(20) (rhs sparse pattern):                         0 
                        ICNTL(21) (solution struct):                            0 
                        ICNTL(22) (in-core/out-of-core facility):               0 
                        ICNTL(23) (max size of memory can be allocated locally):0 
                        ICNTL(24) (detection of null pivot rows):               0 
                        ICNTL(25) (computation of a null space basis):          0 
                        ICNTL(26) (Schur options for rhs or solution):          0 
                        ICNTL(27) (experimental parameter):                     -32 
                        ICNTL(28) (use parallel or sequential ordering):        1 
                        ICNTL(29) (parallel ordering):                          0 
                        ICNTL(30) (user-specified set of entries in inv(A)):    0 
                        ICNTL(31) (factors is discarded in the solve phase):    0 
                        ICNTL(33) (compute determinant):                        0 
                        ICNTL(35) (activate BLR based factorization):           0 
                        ICNTL(36) (choice of BLR factorization variant):        0 
                        ICNTL(38) (estimated compression rate of LU factors):   333 
                        CNTL(1) (relative pivoting threshold):      0.01 
                        CNTL(2) (stopping criterion of refinement): 1.49012e-08 
                        CNTL(3) (absolute pivoting threshold):      0. 
                        CNTL(4) (value of static pivoting):         -1. 
                        CNTL(5) (fixation for null pivots):         0. 
                        CNTL(7) (dropping parameter for BLR):       0. 
                        RINFO(1) (local estimated flops for the elimination after analysis): 
                          [0] 395969. 
                        RINFO(2) (local estimated flops for the assembly after factorization): 
                          [0]  16036. 
                        RINFO(3) (local estimated flops for the elimination after factorization): 
                          [0]  395969. 
                        INFO(15) (estimated size of (in MB) MUMPS internal data for running numerical factorization): 
                        [0] 1 
                        INFO(16) (size of (in MB) MUMPS internal data used during numerical factorization): 
                          [0] 1 
                        INFO(23) (num of pivots eliminated on this processor after factorization): 
                          [0] 297 
                        RINFOG(1) (global estimated flops for the elimination after analysis): 395969. 
                        RINFOG(2) (global estimated flops for the assembly after factorization): 16036. 
                        RINFOG(3) (global estimated flops for the elimination after factorization): 395969. 
                        (RINFOG(12) RINFOG(13))*2^INFOG(34) (determinant): (0.,0.)*(2^0)
                        INFOG(3) (estimated real workspace for factors on all processors after analysis): 14655 
                        INFOG(4) (estimated integer workspace for factors on all processors after analysis): 2956 
                        INFOG(5) (estimated maximum front size in the complete tree): 43 
                        INFOG(6) (number of nodes in the complete tree): 42 
                        INFOG(7) (ordering option effectively use after analysis): 2 
                        INFOG(8) (structural symmetry in percent of the permuted matrix after analysis): 100 
                        INFOG(9) (total real/complex workspace to store the matrix factors after factorization): 14655 
                        INFOG(10) (total integer space store the matrix factors after factorization): 2956 
                        INFOG(11) (order of largest frontal matrix after factorization): 43 
                        INFOG(12) (number of off-diagonal pivots): 1 
                        INFOG(13) (number of delayed pivots after factorization): 0 
                        INFOG(14) (number of memory compress after factorization): 0 
                        INFOG(15) (number of steps of iterative refinement after solution): 0 
                        INFOG(16) (estimated size (in MB) of all MUMPS internal data for factorization after analysis: value on the most memory consuming processor): 1 
                        INFOG(17) (estimated size of all MUMPS internal data for factorization after analysis: sum over all processors): 1 
                        INFOG(18) (size of all MUMPS internal data allocated during factorization: value on the most memory consuming processor): 1 
                        INFOG(19) (size of all MUMPS internal data allocated during factorization: sum over all processors): 1 
                        INFOG(20) (estimated number of entries in the factors): 14655 
                        INFOG(21) (size in MB of memory effectively used during factorization - value on the most memory consuming processor): 1 
                        INFOG(22) (size in MB of memory effectively used during factorization - sum over all processors): 1 
                        INFOG(23) (after analysis: value of ICNTL(6) effectively used): 0 
                        INFOG(24) (after analysis: value of ICNTL(12) effectively used): 1 
                        INFOG(25) (after factorization: number of pivots modified by static pivoting): 0 
                        INFOG(28) (after factorization: number of null pivots encountered): 0
                        INFOG(29) (after factorization: effective number of entries in the factors (sum over all processors)): 14655
                        INFOG(30, 31) (after solution: size in Mbytes of memory used during solution phase): 0, 0
                        INFOG(32) (after analysis: type of analysis done): 1
                        INFOG(33) (value used for ICNTL(8)): 7
                        INFOG(34) (exponent of the determinant if determinant is requested): 0
                        INFOG(35) (after factorization: number of entries taking into account BLR factor compression - sum over all processors): 14655
                        INFOG(36) (after analysis: estimated size of all MUMPS internal data for running BLR in-core - value on the most memory consuming processor): 0 
                        INFOG(37) (after analysis: estimated size of all MUMPS internal data for running BLR in-core - sum over all processors): 0 
                        INFOG(38) (after analysis: estimated size of all MUMPS internal data for running BLR out-of-core - value on the most memory consuming processor): 0 
                        INFOG(39) (after analysis: estimated size of all MUMPS internal data for running BLR out-of-core - sum over all processors): 0 
            linear system matrix = precond matrix:
            Mat Object: (fetidp_bddc_pc_bddc_neumann_) 1 MPI processes
              type: seqaij
              rows=297, cols=297
              total: nonzeros=9785, allocated nonzeros=9785
              total number of mallocs used during MatSetValues calls =0
                using I-node routines: found 141 nodes, limit used is 5
        --- Coarse solver
          KSP Object: (fetidp_bddc_pc_bddc_coarse_) 5 MPI processes
            type: preonly
            maximum iterations=1000, initial guess is zero
            tolerances:  relative=1e-10, absolute=1e-10, divergence=10000.
            left preconditioning
            using NONE norm type for convergence test
          PC Object: (fetidp_bddc_pc_bddc_coarse_) 5 MPI processes
            type: redundant
              First (color=0) of 5 PCs follows
            linear system matrix = precond matrix:
            Mat Object: (fetidp_bddc_pc_bddc_coarse_) 5 MPI processes
              type: mpiaij
              rows=8, cols=8
              total: nonzeros=64, allocated nonzeros=64
              total number of mallocs used during MatSetValues calls =0
                using I-node (on process 0) routines: found 1 nodes, limit used is 5
                      KSP Object:         (fetidp_bddc_pc_bddc_coarse_redundant_)         1 MPI processes
                        type: preonly
                        maximum iterations=10000, initial guess is zero
                        tolerances:  relative=1e-05, absolute=1e-50, divergence=10000.
                        left preconditioning
                        using NONE norm type for convergence test
                      PC Object:         (fetidp_bddc_pc_bddc_coarse_redundant_)         1 MPI processes
                        type: lu
                          out-of-place factorization
                          tolerance for zero pivot 2.22045e-14
                          matrix ordering: nd
                          factor fill ratio given 5., needed 1.
                            Factored matrix follows:
                              Mat Object:         1 MPI processes
                                type: seqaij
                                rows=8, cols=8
                                package used to perform factorization: petsc
                                total: nonzeros=64, allocated nonzeros=64
                                total number of mallocs used during MatSetValues calls =0
                                  using I-node routines: found 2 nodes, limit used is 5
                        linear system matrix = precond matrix:
                        Mat Object:         1 MPI processes
                          type: seqaij
                          rows=8, cols=8
                          total: nonzeros=64, allocated nonzeros=64
                          total number of mallocs used during MatSetValues calls =0
                            using I-node routines: found 2 nodes, limit used is 5
        linear system matrix = precond matrix:
        Mat Object: 5 MPI processes
          type: is
          rows=1227, cols=1227
          total: nonzeros=46498, allocated nonzeros=46498
          total number of mallocs used during MatSetValues calls =0
            has attached near null space
    maximum iterations=10000, initial guess is zero
    tolerances:  relative=1e-08, absolute=1e-50, divergence=10000.
    left preconditioning
    using NONE norm type for convergence test
  PC Object: 5 MPI processes
    type: none
    linear system matrix = precond matrix:
    Mat Object: 5 MPI processes
      type: is
      rows=1227, cols=1227
      total: nonzeros=46498, allocated nonzeros=53284
      total number of mallocs used during MatSetValues calls =0
        has attached null space
L_2 Error: 2.78564e-09 [1.34975e-10, 2.78237e-09]
